module gitlab.com/a4to/almcli

go 1.22.4

require (
	github.com/agnivade/levenshtein v1.1.1
	github.com/containerd/console v1.0.4
	github.com/d4l3k/go-bfloat16 v0.0.0-20211005043715-690c3bdd05f1
	github.com/emirpasic/gods v1.18.1
	github.com/gin-contrib/cors v1.7.2
	github.com/gin-gonic/gin v1.10.0
	github.com/google/uuid v1.6.0
	github.com/mattn/go-runewidth v0.0.15
	github.com/nlpodyssey/gopickle v0.3.0
	github.com/olekukonko/tablewriter v0.0.5
	github.com/pdevine/tensor v0.0.0-20240510204454-f88f4562727c
	github.com/spf13/cobra v1.8.1
	github.com/stretchr/testify v1.9.0
	github.com/x448/float16 v0.8.4
	golang.org/x/crypto v0.24.0
	golang.org/x/exp v0.0.0-20240613232115-7f521ea00fb8
	golang.org/x/sync v0.7.0
	golang.org/x/sys v0.21.0
	golang.org/x/term v0.21.0
	golang.org/x/text v0.16.0
	google.golang.org/protobuf v1.34.2
)

require (
	github.com/apache/arrow/go/arrow v0.0.0-20211112161151-bc219186db40 // indirect
	github.com/bytedance/sonic v1.11.6 // indirect
	github.com/bytedance/sonic/loader v0.1.1 // indirect
	github.com/chewxy/hm v1.0.0 // indirect
	github.com/chewxy/math32 v1.10.1 // indirect
	github.com/cloudwego/base64x v0.1.4 // indirect
	github.com/cloudwego/iasm v0.2.0 // indirect
	github.com/davecgh/go-spew v1.1.1 // indirect
	github.com/gabriel-vasile/mimetype v1.4.3 // indirect
	github.com/gin-contrib/sse v0.1.0 // indirect
	github.com/go-playground/locales v0.14.1 // indirect
	github.com/go-playground/universal-translator v0.18.1 // indirect
	github.com/go-playground/validator/v10 v10.20.0 // indirect
	github.com/goccy/go-json v0.10.2 // indirect
	github.com/gogo/protobuf v1.3.2 // indirect
	github.com/golang/protobuf v1.5.4 // indirect
	github.com/google/flatbuffers v24.3.25+incompatible // indirect
	github.com/inconshreveable/mousetrap v1.1.0 // indirect
	github.com/json-iterator/go v1.1.12 // indirect
	github.com/klauspost/cpuid/v2 v2.2.7 // indirect
	github.com/kr/text v0.2.0 // indirect
	github.com/leodido/go-urn v1.4.0 // indirect
	github.com/mattn/go-isatty v0.0.20 // indirect
	github.com/modern-go/concurrent v0.0.0-20180306012644-bacd9c7ef1dd // indirect
	github.com/modern-go/reflect2 v1.0.2 // indirect
	github.com/pelletier/go-toml/v2 v2.2.2 // indirect
	github.com/pkg/errors v0.9.1 // indirect
	github.com/pmezard/go-difflib v1.0.0 // indirect
	github.com/rivo/uniseg v0.2.0 // indirect
	github.com/spf13/pflag v1.0.5 // indirect
	github.com/twitchyliquid64/golang-asm v0.15.1 // indirect
	github.com/ugorji/go/codec v1.2.12 // indirect
	github.com/xtgo/set v1.0.0 // indirect
	go4.org/unsafe/assume-no-moving-gc v0.0.0-20231121144256-b99613f794b6 // indirect
	golang.org/x/arch v0.8.0 // indirect
	golang.org/x/net v0.25.0 // indirect
	golang.org/x/xerrors v0.0.0-20200804184101-5ec99f83aff1 // indirect
	gonum.org/v1/gonum v0.15.0 // indirect
	gopkg.in/yaml.v3 v3.0.1 // indirect
	gorgonia.org/vecf32 v0.9.0 // indirect
	gorgonia.org/vecf64 v0.9.0 // indirect
)
